waveform.vcd
$version Generated by VerilatedVcd $end
$timescale 1ps $end
 $scope module TOP $end
  $var wire 1 y" clock $end
  $var wire 1 z" reset $end
  $var wire 1 {" io_key_ready $end
  $var wire 1 |" io_key_valid $end
  $var wire 80 }" io_key_bits [79:0] $end
  $var wire 1 "# io_plaintext_ready $end
  $var wire 1 ## io_plaintext_valid $end
  $var wire 64 $# io_plaintext_bits [63:0] $end
  $var wire 1 &# io_ciphertext_ready $end
  $var wire 1 '# io_ciphertext_valid $end
  $var wire 64 (# io_ciphertext_bits [63:0] $end
  $scope module PresentCipher $end
   $var wire 1 y" clock $end
   $var wire 1 z" reset $end
   $var wire 1 {" io_key_ready $end
   $var wire 1 |" io_key_valid $end
   $var wire 80 }" io_key_bits [79:0] $end
   $var wire 1 "# io_plaintext_ready $end
   $var wire 1 ## io_plaintext_valid $end
   $var wire 64 $# io_plaintext_bits [63:0] $end
   $var wire 1 &# io_ciphertext_ready $end
   $var wire 1 '# io_ciphertext_valid $end
   $var wire 64 (# io_ciphertext_bits [63:0] $end
   $var wire 1 y" roundKeyGenerator_clock $end
   $var wire 1 z" roundKeyGenerator_reset $end
   $var wire 1 # roundKeyGenerator_io_key_ready $end
   $var wire 1 |" roundKeyGenerator_io_key_valid $end
   $var wire 80 }" roundKeyGenerator_io_key_bits [79:0] $end
   $var wire 1 *# roundKeyGenerator_io_out_ready $end
   $var wire 1 $ roundKeyGenerator_io_out_valid $end
   $var wire 80 % roundKeyGenerator_io_out_bits_0 [79:0] $end
   $var wire 80 ( roundKeyGenerator_io_out_bits_1 [79:0] $end
   $var wire 80 + roundKeyGenerator_io_out_bits_2 [79:0] $end
   $var wire 80 . roundKeyGenerator_io_out_bits_3 [79:0] $end
   $var wire 80 1 roundKeyGenerator_io_out_bits_4 [79:0] $end
   $var wire 80 4 roundKeyGenerator_io_out_bits_5 [79:0] $end
   $var wire 80 7 roundKeyGenerator_io_out_bits_6 [79:0] $end
   $var wire 80 : roundKeyGenerator_io_out_bits_7 [79:0] $end
   $var wire 80 = roundKeyGenerator_io_out_bits_8 [79:0] $end
   $var wire 80 @ roundKeyGenerator_io_out_bits_9 [79:0] $end
   $var wire 80 C roundKeyGenerator_io_out_bits_10 [79:0] $end
   $var wire 80 F roundKeyGenerator_io_out_bits_11 [79:0] $end
   $var wire 80 I roundKeyGenerator_io_out_bits_12 [79:0] $end
   $var wire 80 L roundKeyGenerator_io_out_bits_13 [79:0] $end
   $var wire 80 O roundKeyGenerator_io_out_bits_14 [79:0] $end
   $var wire 80 R roundKeyGenerator_io_out_bits_15 [79:0] $end
   $var wire 80 U roundKeyGenerator_io_out_bits_16 [79:0] $end
   $var wire 80 X roundKeyGenerator_io_out_bits_17 [79:0] $end
   $var wire 80 [ roundKeyGenerator_io_out_bits_18 [79:0] $end
   $var wire 80 ^ roundKeyGenerator_io_out_bits_19 [79:0] $end
   $var wire 80 a roundKeyGenerator_io_out_bits_20 [79:0] $end
   $var wire 80 d roundKeyGenerator_io_out_bits_21 [79:0] $end
   $var wire 80 g roundKeyGenerator_io_out_bits_22 [79:0] $end
   $var wire 80 j roundKeyGenerator_io_out_bits_23 [79:0] $end
   $var wire 80 m roundKeyGenerator_io_out_bits_24 [79:0] $end
   $var wire 80 p roundKeyGenerator_io_out_bits_25 [79:0] $end
   $var wire 80 s roundKeyGenerator_io_out_bits_26 [79:0] $end
   $var wire 80 v roundKeyGenerator_io_out_bits_27 [79:0] $end
   $var wire 80 y roundKeyGenerator_io_out_bits_28 [79:0] $end
   $var wire 80 | roundKeyGenerator_io_out_bits_29 [79:0] $end
   $var wire 80 !! roundKeyGenerator_io_out_bits_30 [79:0] $end
   $var wire 80 $! roundKeyGenerator_io_out_bits_31 [79:0] $end
   $var wire 3 '! state [2:0] $end
   $var wire 1 (! plaintextRegistered $end
   $var wire 5 )! roundcounter [4:0] $end
   $var wire 64 *! ciphertext [63:0] $end
   $var wire 64 ,! plaintext [63:0] $end
   $var wire 64 .! permute_result [63:0] $end
   $var wire 64 0! roundkeys_0 [63:0] $end
   $var wire 64 2! roundkeys_1 [63:0] $end
   $var wire 64 4! roundkeys_2 [63:0] $end
   $var wire 64 6! roundkeys_3 [63:0] $end
   $var wire 64 8! roundkeys_4 [63:0] $end
   $var wire 64 :! roundkeys_5 [63:0] $end
   $var wire 64 <! roundkeys_6 [63:0] $end
   $var wire 64 >! roundkeys_7 [63:0] $end
   $var wire 64 @! roundkeys_8 [63:0] $end
   $var wire 64 B! roundkeys_9 [63:0] $end
   $var wire 64 D! roundkeys_10 [63:0] $end
   $var wire 64 F! roundkeys_11 [63:0] $end
   $var wire 64 H! roundkeys_12 [63:0] $end
   $var wire 64 J! roundkeys_13 [63:0] $end
   $var wire 64 L! roundkeys_14 [63:0] $end
   $var wire 64 N! roundkeys_15 [63:0] $end
   $var wire 64 P! roundkeys_16 [63:0] $end
   $var wire 64 R! roundkeys_17 [63:0] $end
   $var wire 64 T! roundkeys_18 [63:0] $end
   $var wire 64 V! roundkeys_19 [63:0] $end
   $var wire 64 X! roundkeys_20 [63:0] $end
   $var wire 64 Z! roundkeys_21 [63:0] $end
   $var wire 64 \! roundkeys_22 [63:0] $end
   $var wire 64 ^! roundkeys_23 [63:0] $end
   $var wire 64 `! roundkeys_24 [63:0] $end
   $var wire 64 b! roundkeys_25 [63:0] $end
   $var wire 64 d! roundkeys_26 [63:0] $end
   $var wire 64 f! roundkeys_27 [63:0] $end
   $var wire 64 h! roundkeys_28 [63:0] $end
   $var wire 64 j! roundkeys_29 [63:0] $end
   $var wire 64 l! roundkeys_30 [63:0] $end
   $var wire 64 n! roundkeys_31 [63:0] $end
   $scope module roundKeyGenerator $end
    $var wire 1 y" clock $end
    $var wire 1 z" reset $end
    $var wire 1 # io_key_ready $end
    $var wire 1 |" io_key_valid $end
    $var wire 80 }" io_key_bits [79:0] $end
    $var wire 1 *# io_out_ready $end
    $var wire 1 $ io_out_valid $end
    $var wire 80 % io_out_bits_0 [79:0] $end
    $var wire 80 ( io_out_bits_1 [79:0] $end
    $var wire 80 + io_out_bits_2 [79:0] $end
    $var wire 80 . io_out_bits_3 [79:0] $end
    $var wire 80 1 io_out_bits_4 [79:0] $end
    $var wire 80 4 io_out_bits_5 [79:0] $end
    $var wire 80 7 io_out_bits_6 [79:0] $end
    $var wire 80 : io_out_bits_7 [79:0] $end
    $var wire 80 = io_out_bits_8 [79:0] $end
    $var wire 80 @ io_out_bits_9 [79:0] $end
    $var wire 80 C io_out_bits_10 [79:0] $end
    $var wire 80 F io_out_bits_11 [79:0] $end
    $var wire 80 I io_out_bits_12 [79:0] $end
    $var wire 80 L io_out_bits_13 [79:0] $end
    $var wire 80 O io_out_bits_14 [79:0] $end
    $var wire 80 R io_out_bits_15 [79:0] $end
    $var wire 80 U io_out_bits_16 [79:0] $end
    $var wire 80 X io_out_bits_17 [79:0] $end
    $var wire 80 [ io_out_bits_18 [79:0] $end
    $var wire 80 ^ io_out_bits_19 [79:0] $end
    $var wire 80 a io_out_bits_20 [79:0] $end
    $var wire 80 d io_out_bits_21 [79:0] $end
    $var wire 80 g io_out_bits_22 [79:0] $end
    $var wire 80 j io_out_bits_23 [79:0] $end
    $var wire 80 m io_out_bits_24 [79:0] $end
    $var wire 80 p io_out_bits_25 [79:0] $end
    $var wire 80 s io_out_bits_26 [79:0] $end
    $var wire 80 v io_out_bits_27 [79:0] $end
    $var wire 80 y io_out_bits_28 [79:0] $end
    $var wire 80 | io_out_bits_29 [79:0] $end
    $var wire 80 !! io_out_bits_30 [79:0] $end
    $var wire 80 $! io_out_bits_31 [79:0] $end
    $var wire 3 p! state [2:0] $end
    $var wire 80 q! roundkeys_0 [79:0] $end
    $var wire 80 t! roundkeys_1 [79:0] $end
    $var wire 80 w! roundkeys_2 [79:0] $end
    $var wire 80 z! roundkeys_3 [79:0] $end
    $var wire 80 }! roundkeys_4 [79:0] $end
    $var wire 80 "" roundkeys_5 [79:0] $end
    $var wire 80 %" roundkeys_6 [79:0] $end
    $var wire 80 (" roundkeys_7 [79:0] $end
    $var wire 80 +" roundkeys_8 [79:0] $end
    $var wire 80 ." roundkeys_9 [79:0] $end
    $var wire 80 1" roundkeys_10 [79:0] $end
    $var wire 80 4" roundkeys_11 [79:0] $end
    $var wire 80 7" roundkeys_12 [79:0] $end
    $var wire 80 :" roundkeys_13 [79:0] $end
    $var wire 80 =" roundkeys_14 [79:0] $end
    $var wire 80 @" roundkeys_15 [79:0] $end
    $var wire 80 C" roundkeys_16 [79:0] $end
    $var wire 80 F" roundkeys_17 [79:0] $end
    $var wire 80 I" roundkeys_18 [79:0] $end
    $var wire 80 L" roundkeys_19 [79:0] $end
    $var wire 80 O" roundkeys_20 [79:0] $end
    $var wire 80 R" roundkeys_21 [79:0] $end
    $var wire 80 U" roundkeys_22 [79:0] $end
    $var wire 80 X" roundkeys_23 [79:0] $end
    $var wire 80 [" roundkeys_24 [79:0] $end
    $var wire 80 ^" roundkeys_25 [79:0] $end
    $var wire 80 a" roundkeys_26 [79:0] $end
    $var wire 80 d" roundkeys_27 [79:0] $end
    $var wire 80 g" roundkeys_28 [79:0] $end
    $var wire 80 j" roundkeys_29 [79:0] $end
    $var wire 80 m" roundkeys_30 [79:0] $end
    $var wire 80 p" roundkeys_31 [79:0] $end
    $var wire 80 s" roundkeys_32 [79:0] $end
    $var wire 6 v" roundCounter [5:0] $end
    $var wire 4 w" select_Wire [3:0] $end
    $var wire 5 x" modifiedValue [4:0] $end
   $upscope $end
  $upscope $end
 $upscope $end
$enddefinitions $end


#0
1#
0$
b00000000000000000000000000000000000000000000000000000000000000000000000000000000 %
b00000000000000000000000000000000000000000000000000000000000000000000000000000000 (
b00000000000000000000000000000000000000000000000000000000000000000000000000000000 +
b00000000000000000000000000000000000000000000000000000000000000000000000000000000 .
b00000000000000000000000000000000000000000000000000000000000000000000000000000000 1
b00000000000000000000000000000000000000000000000000000000000000000000000000000000 4
b00000000000000000000000000000000000000000000000000000000000000000000000000000000 7
b00000000000000000000000000000000000000000000000000000000000000000000000000000000 :
b00000000000000000000000000000000000000000000000000000000000000000000000000000000 =
b00000000000000000000000000000000000000000000000000000000000000000000000000000000 @
b00000000000000000000000000000000000000000000000000000000000000000000000000000000 C
b00000000000000000000000000000000000000000000000000000000000000000000000000000000 F
b00000000000000000000000000000000000000000000000000000000000000000000000000000000 I
b00000000000000000000000000000000000000000000000000000000000000000000000000000000 L
b00000000000000000000000000000000000000000000000000000000000000000000000000000000 O
b00000000000000000000000000000000000000000000000000000000000000000000000000000000 R
b00000000000000000000000000000000000000000000000000000000000000000000000000000000 U
b00000000000000000000000000000000000000000000000000000000000000000000000000000000 X
b00000000000000000000000000000000000000000000000000000000000000000000000000000000 [
b00000000000000000000000000000000000000000000000000000000000000000000000000000000 ^
b00000000000000000000000000000000000000000000000000000000000000000000000000000000 a
b00000000000000000000000000000000000000000000000000000000000000000000000000000000 d
b00000000000000000000000000000000000000000000000000000000000000000000000000000000 g
b00000000000000000000000000000000000000000000000000000000000000000000000000000000 j
b00000000000000000000000000000000000000000000000000000000000000000000000000000000 m
b00000000000000000000000000000000000000000000000000000000000000000000000000000000 p
b00000000000000000000000000000000000000000000000000000000000000000000000000000000 s
b00000000000000000000000000000000000000000000000000000000000000000000000000000000 v
b00000000000000000000000000000000000000000000000000000000000000000000000000000000 y
b00000000000000000000000000000000000000000000000000000000000000000000000000000000 |
b00000000000000000000000000000000000000000000000000000000000000000000000000000000 !!
b00000000000000000000000000000000000000000000000000000000000000000000000000000000 $!
b000 '!
0(!
b00000 )!
b0000000000000000000000000000000000000000000000000000000000000000 *!
b0000000000000000000000000000000000000000000000000000000000000000 ,!
b0000000000000000000000000000000000000000000000000000000000000000 .!
b0000000000000000000000000000000000000000000000000000000000000000 0!
b0000000000000000000000000000000000000000000000000000000000000000 2!
b0000000000000000000000000000000000000000000000000000000000000000 4!
b0000000000000000000000000000000000000000000000000000000000000000 6!
b0000000000000000000000000000000000000000000000000000000000000000 8!
b0000000000000000000000000000000000000000000000000000000000000000 :!
b0000000000000000000000000000000000000000000000000000000000000000 <!
b0000000000000000000000000000000000000000000000000000000000000000 >!
b0000000000000000000000000000000000000000000000000000000000000000 @!
b0000000000000000000000000000000000000000000000000000000000000000 B!
b0000000000000000000000000000000000000000000000000000000000000000 D!
b0000000000000000000000000000000000000000000000000000000000000000 F!
b0000000000000000000000000000000000000000000000000000000000000000 H!
b0000000000000000000000000000000000000000000000000000000000000000 J!
b0000000000000000000000000000000000000000000000000000000000000000 L!
b0000000000000000000000000000000000000000000000000000000000000000 N!
b0000000000000000000000000000000000000000000000000000000000000000 P!
b0000000000000000000000000000000000000000000000000000000000000000 R!
b0000000000000000000000000000000000000000000000000000000000000000 T!
b0000000000000000000000000000000000000000000000000000000000000000 V!
b0000000000000000000000000000000000000000000000000000000000000000 X!
b0000000000000000000000000000000000000000000000000000000000000000 Z!
b0000000000000000000000000000000000000000000000000000000000000000 \!
b0000000000000000000000000000000000000000000000000000000000000000 ^!
b0000000000000000000000000000000000000000000000000000000000000000 `!
b0000000000000000000000000000000000000000000000000000000000000000 b!
b0000000000000000000000000000000000000000000000000000000000000000 d!
b0000000000000000000000000000000000000000000000000000000000000000 f!
b0000000000000000000000000000000000000000000000000000000000000000 h!
b0000000000000000000000000000000000000000000000000000000000000000 j!
b0000000000000000000000000000000000000000000000000000000000000000 l!
b0000000000000000000000000000000000000000000000000000000000000000 n!
b000 p!
b00000000000000000000000000000000000000000000000000000000000000000000000000000000 q!
b00000000000000000000000000000000000000000000000000000000000000000000000000000000 t!
b00000000000000000000000000000000000000000000000000000000000000000000000000000000 w!
b00000000000000000000000000000000000000000000000000000000000000000000000000000000 z!
b00000000000000000000000000000000000000000000000000000000000000000000000000000000 }!
b00000000000000000000000000000000000000000000000000000000000000000000000000000000 ""
b00000000000000000000000000000000000000000000000000000000000000000000000000000000 %"
b00000000000000000000000000000000000000000000000000000000000000000000000000000000 ("
b00000000000000000000000000000000000000000000000000000000000000000000000000000000 +"
b00000000000000000000000000000000000000000000000000000000000000000000000000000000 ."
b00000000000000000000000000000000000000000000000000000000000000000000000000000000 1"
b00000000000000000000000000000000000000000000000000000000000000000000000000000000 4"
b00000000000000000000000000000000000000000000000000000000000000000000000000000000 7"
b00000000000000000000000000000000000000000000000000000000000000000000000000000000 :"
b00000000000000000000000000000000000000000000000000000000000000000000000000000000 ="
b00000000000000000000000000000000000000000000000000000000000000000000000000000000 @"
b00000000000000000000000000000000000000000000000000000000000000000000000000000000 C"
b00000000000000000000000000000000000000000000000000000000000000000000000000000000 F"
b00000000000000000000000000000000000000000000000000000000000000000000000000000000 I"
b00000000000000000000000000000000000000000000000000000000000000000000000000000000 L"
b00000000000000000000000000000000000000000000000000000000000000000000000000000000 O"
b00000000000000000000000000000000000000000000000000000000000000000000000000000000 R"
b00000000000000000000000000000000000000000000000000000000000000000000000000000000 U"
b00000000000000000000000000000000000000000000000000000000000000000000000000000000 X"
b00000000000000000000000000000000000000000000000000000000000000000000000000000000 ["
b00000000000000000000000000000000000000000000000000000000000000000000000000000000 ^"
b00000000000000000000000000000000000000000000000000000000000000000000000000000000 a"
b00000000000000000000000000000000000000000000000000000000000000000000000000000000 d"
b00000000000000000000000000000000000000000000000000000000000000000000000000000000 g"
b00000000000000000000000000000000000000000000000000000000000000000000000000000000 j"
b00000000000000000000000000000000000000000000000000000000000000000000000000000000 m"
b00000000000000000000000000000000000000000000000000000000000000000000000000000000 p"
b00000000000000000000000000000000000000000000000000000000000000000000000000000000 s"
b000000 v"
b0000 w"
b00000 x"
1y"
1z"
1{"
0|"
b00000000000000000000000000000000000000000000000000000000000000000000000000000000 }"
1"#
0##
b0000000000000000000000000000000000000000000000000000000000000000 $#
0&#
0'#
b0000000000000000000000000000000000000000000000000000000000000000 (#
1*#
#1
0y"
#2
b000001 v"
1y"
#3
0y"
#4
1y"
#5
0y"
#6
0#
b001 '!
1(!
b001 p!
1y"
0z"
1|"
1##
1&#
#7
0y"
#8
b010 p!
b1100 w"
1y"
0|"
0##
0&#
#9
0y"
#10
b011 p!
b11000000000000000000000000000000000000000000000000000000000000000000000000000000 t!
b0000 w"
b00001 x"
1y"
#11
0y"
#12
b100 p!
b11000000000000000000000000000000000000000000000000000000000000001000000000000000 t!
b00000 x"
1y"
#13
0y"
#14
b001 p!
b11000000000000000000000000000000000000000000000000000000000000001000000000000000 w!
b000010 v"
1y"
#15
0y"
#16
b010 p!
b00010000000000000001100000000000000000000000000000000000000000000000000000000000 w!
b0101 w"
1y"
#17
0y"
#18
b011 p!
b01010000000000000001100000000000000000000000000000000000000000000000000000000000 w!
b0000 w"
b00010 x"
1y"
#19
0y"
#20
b100 p!
b01010000000000000001100000000000000000000000000000000000000000010000000000000000 w!
b00000 x"
1y"
#21
0y"
#22
b001 p!
b01010000000000000001100000000000000000000000000000000000000000010000000000000000 z!
b000011 v"
1y"
#23
0y"
#24
b010 p!
b00100000000000000000101000000000000000110000000000000000000000000000000000000000 z!
b0110 w"
1y"
#25
0y"
#26
b011 p!
b01100000000000000000101000000000000000110000000000000000000000000000000000000000 z!
b0000 w"
b00011 x"
1y"
#27
0y"
#28
b100 p!
b01100000000000000000101000000000000000110000000000000000000000011000000000000000 z!
b00000 x"
1y"
#29
0y"
#30
b001 p!
b01100000000000000000101000000000000000110000000000000000000000011000000000000000 }!
b000100 v"
1y"
#31
0y"
#32
b010 p!
b00110000000000000000110000000000000000010100000000000000011000000000000000000000 }!
b1011 w"
1y"
#33
0y"
#34
b011 p!
b10110000000000000000110000000000000000010100000000000000011000000000000000000000 }!
b0000 w"
b00100 x"
1y"
#35
0y"
#36
b100 p!
b10110000000000000000110000000000000000010100000000000000011000100000000000000000 }!
b00000 x"
1y"
#37
0y"
#38
b001 p!
b10110000000000000000110000000000000000010100000000000000011000100000000000000000 ""
b000101 v"
1y"
#39
0y"
#40
b010 p!
b01000000000000000001011000000000000000011000000000000000001010000000000000001100 ""
b1001 w"
1y"
#41
0y"
#42
b011 p!
b10010000000000000001011000000000000000011000000000000000001010000000000000001100 ""
b0000 w"
b10101 x"
1y"
#43
0y"
#44
b100 p!
b10010000000000000001011000000000000000011000000000000000001010101000000000001100 ""
b00000 x"
1y"
#45
0y"
#46
b001 p!
b10010000000000000001011000000000000000011000000000000000001010101000000000001100 %"
b000110 v"
1y"
#47
0y"
#48
b010 p!
b01010000000000011001001000000000000000101100000000000000001100000000000000000101 %"
1y"
#49
0y"
#50
b011 p!
b00000000000000011001001000000000000000101100000000000000001100000000000000000101 %"
b00110 x"
1y"
#51
0y"
#52
b100 p!
b00000000000000011001001000000000000000101100000000000000001100110000000000000101 %"
b00000 x"
1y"
#53
0y"
#54
b001 p!
b00000000000000011001001000000000000000101100000000000000001100110000000000000101 ("
b000111 v"
1y"
#55
0y"
#56
b010 p!
b01100000000000001010000000000000001100100100000000000000010110000000000000000110 ("
b1010 w"
1y"
#57
0y"
#58
b011 p!
b10100000000000001010000000000000001100100100000000000000010110000000000000000110 ("
b0000 w"
b10111 x"
1y"
#59
0y"
#60
b100 p!
b10100000000000001010000000000000001100100100000000000000010110111000000000000110 ("
b00000 x"
1y"
#61
0y"
#62
b001 p!
b10100000000000001010000000000000001100100100000000000000010110111000000000000110 +"
b001000 v"
1y"
#63
0y"
#64
b010 p!
b01110000000000001101010000000000000101000000000000000110010010000000000000001011 +"
b1101 w"
1y"
#65
0y"
#66
b011 p!
b11010000000000001101010000000000000101000000000000000110010010000000000000001011 +"
b0000 w"
b11000 x"
1y"
#67
0y"
#68
b100 p!
b11010000000000001101010000000000000101000000000000000110010011000000000000001011 +"
b00000 x"
1y"
#69
0y"
#70
b001 p!
b11010000000000001101010000000000000101000000000000000110010011000000000000001011 ."
b001001 v"
1y"
#71
0y"
#72
b010 p!
b10000000000000010111101000000000000110101000000000000010100000000000000011001001 ."
b0011 w"
1y"
#73
0y"
#74
b011 p!
b00110000000000010111101000000000000110101000000000000010100000000000000011001001 ."
b0000 w"
b01001 x"
1y"
#75
0y"
#76
b100 p!
b00110000000000010111101000000000000110101000000000000010100001001000000011001001 ."
b00000 x"
1y"
#77
0y"
#78
b001 p!
b00110000000000010111101000000000000110101000000000000010100001001000000011001001 1"
b001010 v"
1y"
#79
0y"
#80
b010 p!
b10010000000110010010011000000000001011110100000000000011010100000000000001010000 1"
b1110 w"
1y"
#81
0y"
#82
b011 p!
b11100000000110010010011000000000001011110100000000000011010100000000000001010000 1"
b0000 w"
b01010 x"
1y"
#83
0y"
#84
b100 p!
b11100000000110010010011000000000001011110100000000000011010101010000000001010000 1"
b00000 x"
1y"
#85
0y"
#86
b001 p!
b11100000000110010010011000000000001011110100000000000011010101010000000001010000 4"
b001011 v"
1y"
#87
0y"
#88
b010 p!
b10100000000010100001110000000011001001001100000000000101111010000000000001101010 4"
b1111 w"
1y"
#89
0y"
#90
b011 p!
b11110000000010100001110000000011001001001100000000000101111010000000000001101010 4"
b0000 w"
b11011 x"
1y"
#91
0y"
#92
b100 p!
b11110000000010100001110000000011001001001100000000000101111011011000000001101010 4"
b00000 x"
1y"
#93
0y"
#94
b001 p!
b11110000000010100001110000000011001001001100000000000101111011011000000001101010 7"
b001100 v"
1y"
#95
0y"
#96
b010 p!
b10110000000011010101111000000001010000111000000001100100100110000000000010111101 7"
b1000 w"
1y"
#97
0y"
#98
b011 p!
b10000000000011010101111000000001010000111000000001100100100110000000000010111101 7"
b0000 w"
b11100 x"
1y"
#99
0y"
#100
b100 p!
b10000000000011010101111000000001010000111000000001100100100111100000000010111101 7"
b00000 x"
1y"
#101
0y"
#102
b001 p!
b10000000000011010101111000000001010000111000000001100100100111100000000010111101 :"
b001101 v"
1y"
#103
0y"
#104
b010 p!
b11000000000101111011000000000001101010111100000000101000011100000000110010010011 :"
b0100 w"
1y"
#105
0y"
#106
b011 p!
b01000000000101111011000000000001101010111100000000101000011100000000110010010011 :"
b0000 w"
b01101 x"
1y"
#107
0y"
#108
b100 p!
b01000000000101111011000000000001101010111100000000101000011101101000110010010011 :"
b00000 x"
1y"
#109
0y"
#110
b001 p!
b01000000000101111011000000000001101010111100000000101000011101101000110010010011 ="
b001110 v"
1y"
#111
0y"
#112
b010 p!
b11010001100100100110100000000010111101100000000000110101011110000000010100001110 ="
b0111 w"
1y"
#113
0y"
#114
b011 p!
b01110001100100100110100000000010111101100000000000110101011110000000010100001110 ="
b0000 w"
b11110 x"
1y"
#115
0y"
#116
b100 p!
b01110001100100100110100000000010111101100000000000110101011111110000010100001110 ="
b00000 x"
1y"
#117
0y"
#118
b001 p!
b01110001100100100110100000000010111101100000000000110101011111110000010100001110 @"
b001111 v"
1y"
#119
0y"
#120
b010 p!
b11100000101000011100111000110010010011010000000001011110110000000000011010101111 @"
b0001 w"
1y"
#121
0y"
#122
b011 p!
b00010000101000011100111000110010010011010000000001011110110000000000011010101111 @"
b0000 w"
b01111 x"
1y"
#123
0y"
#124
b100 p!
b00010000101000011100111000110010010011010000000001011110110001111000011010101111 @"
b00000 x"
1y"
#125
0y"
#126
b001 p!
b00010000101000011100111000110010010011010000000001011110110001111000011010101111 C"
b010000 v"
1y"
#127
0y"
#128
b010 p!
b11110000110101011110001000010100001110011100011001001001101000000000101111011000 C"
b0010 w"
1y"
#129
0y"
#130
b011 p!
b00100000110101011110001000010100001110011100011001001001101000000000101111011000 C"
b0000 w"
b10000 x"
1y"
#131
0y"
#132
b100 p!
b00100000110101011110001000010100001110011100011001001001101010000000101111011000 C"
b00000 x"
1y"
#133
0y"
#134
b001 p!
b00100000110101011110001000010100001110011100011001001001101010000000101111011000 F"
b010001 v"
1y"
#135
0y"
#136
b010 p!
b00000001011110110000010000011010101111000100001010000111001110001100100100110101 F"
b1100 w"
1y"
#137
0y"
#138
b011 p!
b11000001011110110000010000011010101111000100001010000111001110001100100100110101 F"
b0000 w"
1y"
#139
0y"
#140
b100 p!
b11000001011110110000010000011010101111000100001010000111001100000100100100110101 F"
1y"
#141
0y"
#142
b001 p!
b11000001011110110000010000011010101111000100001010000111001100000100100100110101 I"
b010010 v"
1y"
#143
0y"
#144
b010 p!
b00001001001001101011100000101111011000001000001101010111100010000101000011100110 I"
b1100 w"
1y"
#145
0y"
#146
b011 p!
b11001001001001101011100000101111011000001000001101010111100010000101000011100110 I"
b0000 w"
b00010 x"
1y"
#147
0y"
#148
b100 p!
b11001001001001101011100000101111011000001000001101010111100000010101000011100110 I"
b00000 x"
1y"
#149
0y"
#150
b001 p!
b11001001001001101011100000101111011000001000001101010111100000010101000011100110 L"
b010011 v"
1y"
#151
0y"
#152
b010 p!
b00101010000111001101100100100100110101110000010111101100000100000110101011110000 L"
b0110 w"
1y"
#153
0y"
#154
b011 p!
b01101010000111001101100100100100110101110000010111101100000100000110101011110000 L"
b0000 w"
b10011 x"
1y"
#155
0y"
#156
b100 p!
b01101010000111001101100100100100110101110000010111101100000110011110101011110000 L"
b00000 x"
1y"
#157
0y"
#158
b001 p!
b01101010000111001101100100100100110101110000010111101100000110011110101011110000 O"
b010100 v"
1y"
#159
0y"
#160
b010 p!
b00111101010111100000110101000011100110110010010010011010111000001011110110000011 O"
b1011 w"
1y"
#161
0y"
#162
b011 p!
b10111101010111100000110101000011100110110010010010011010111000001011110110000011 O"
b0000 w"
b10101 x"
1y"
#163
0y"
#164
b100 p!
b10111101010111100000110101000011100110110010010010011010111010101011110110000011 O"
b00000 x"
1y"
#165
0y"
#166
b001 p!
b10111101010111100000110101000011100110110010010010011010111010101011110110000011 R"
b010101 v"
1y"
#167
0y"
#168
b010 p!
b01010111101100000111011110101011110000011010100001110011011001001001001101011101 R"
1y"
#169
0y"
#170
b011 p!
b00000111101100000111011110101011110000011010100001110011011001001001001101011101 R"
b11100 x"
1y"
#171
0y"
#172
b100 p!
b00000111101100000111011110101011110000011010100001110011011011100001001101011101 R"
b00000 x"
1y"
#173
0y"
#174
b001 p!
b00000111101100000111011110101011110000011010100001110011011011100001001101011101 U"
b010110 v"
1y"
#175
0y"
#176
b010 p!
b11000010011010111010000011110110000011101111010101111000001101010000111001101101 U"
b0100 w"
1y"
#177
0y"
#178
b011 p!
b01000010011010111010000011110110000011101111010101111000001101010000111001101101 U"
b0000 w"
b11100 x"
1y"
#179
0y"
#180
b100 p!
b01000010011010111010000011110110000011101111010101111000001111100000111001101101 U"
b00000 x"
1y"
#181
0y"
#182
b001 p!
b01000010011010111010000011110110000011101111010101111000001111100000111001101101 X"
b010111 v"
1y"
#183
0y"
#184
b010 p!
b11000001110011011010100001001101011101000001111011000001110111101010111100000111 X"
b0100 w"
1y"
#185
0y"
#186
b011 p!
b01000001110011011010100001001101011101000001111011000001110111101010111100000111 X"
b0000 w"
b01010 x"
1y"
#187
0y"
#188
b100 p!
b01000001110011011010100001001101011101000001111011000001110101010010111100000111 X"
b00000 x"
1y"
#189
0y"
#190
b001 p!
b01000001110011011010100001001101011101000001111011000001110101010010111100000111 ["
b011000 v"
1y"
#191
0y"
#192
b010 p!
b10100101111000001110100000111001101101010000100110101110100000111101100000111010 ["
b1111 w"
1y"
#193
0y"
#194
b011 p!
b11110101111000001110100000111001101101010000100110101110100000111101100000111010 ["
b0000 w"
b11111 x"
1y"
#195
0y"
#196
b100 p!
b11110101111000001110100000111001101101010000100110101110100011111101100000111010 ["
b00000 x"
1y"
#197
0y"
#198
b001 p!
b11110101111000001110100000111001101101010000100110101110100011111101100000111010 ^"
b011001 v"
1y"
#199
0y"
#200
b010 p!
b11111011000001110101111010111100000111010000011100110110101000010011010111010001 ^"
b0010 w"
1y"
#201
0y"
#202
b011 p!
b00101011000001110101111010111100000111010000011100110110101000010011010111010001 ^"
b0000 w"
b11011 x"
1y"
#203
0y"
#204
b100 p!
b00101011000001110101111010111100000111010000011100110110101011011011010111010001 ^"
b00000 x"
1y"
#205
0y"
#206
b001 p!
b00101011000001110101111010111100000111010000011100110110101011011011010111010001 a"
b011010 v"
1y"
#207
0y"
#208
b010 p!
b10110110101110100010010101100000111010111101011110000011101000001110011011010101 a"
b1000 w"
1y"
#209
0y"
#210
b011 p!
b10000110101110100010010101100000111010111101011110000011101000001110011011010101 a"
b0000 w"
b11011 x"
1y"
#211
0y"
#212
b100 p!
b10000110101110100010010101100000111010111101011110000011101011011110011011010101 a"
b00000 x"
1y"
#213
0y"
#214
b001 p!
b10000110101110100010010101100000111010111101011110000011101011011110011011010101 d"
b011011 v"
1y"
#215
0y"
#216
b010 p!
b10111100110110101011000011010111010001001010110000011101011110101111000001110101 d"
b1000 w"
1y"
#217
0y"
#218
b011 p!
b10001100110110101011000011010111010001001010110000011101011110101111000001110101 d"
b0000 w"
b01110 x"
1y"
#219
0y"
#220
b100 p!
b10001100110110101011000011010111010001001010110000011101011101110111000001110101 d"
b00000 x"
1y"
#221
0y"
#222
b001 p!
b10001100110110101011000011010111010001001010110000011101011101110111000001110101 g"
b011100 v"
1y"
#223
0y"
#224
b010 p!
b11101110000011101011000110011011010101100001101011101000100101011000001110101110 g"
b0001 w"
1y"
#225
0y"
#226
b011 p!
b00011110000011101011000110011011010101100001101011101000100101011000001110101110 g"
b0000 w"
b10111 x"
1y"
#227
0y"
#228
b100 p!
b00011110000011101011000110011011010101100001101011101000100110111000001110101110 g"
b00000 x"
1y"
#229
0y"
#230
b001 p!
b00011110000011101011000110011011010101100001101011101000100110111000001110101110 j"
b011101 v"
1y"
#231
0y"
#232
b010 p!
b01110000011101011100001111000001110101100011001101101010110000110101110100010011 j"
b1101 w"
1y"
#233
0y"
#234
b011 p!
b11010000011101011100001111000001110101100011001101101010110000110101110100010011 j"
b0000 w"
b11011 x"
1y"
#235
0y"
